{
  "project_info": {
    "project_number": "97867280137",
    "firebase_url": "https://ionic-boilerplate-381ae.firebaseio.com",
    "project_id": "ionic-boilerplate-381ae",
    "storage_bucket": "ionic-boilerplate-381ae.appspot.com"
  },
  "client": [
    {
      "client_info": {
        "mobilesdk_app_id": "1:97867280137:android:115c7d013e44f82bdb2dd8",
        "android_client_info": {
          "package_name": "com.neo.biolerplate"
        }
      },
      "oauth_client": [
        {
          "client_id": "97867280137-hl6rc00b4go1huecg64o5s91a5n12lif.apps.googleusercontent.com",
          "client_type": 3
        }
      ],
      "api_key": [
        {
          "current_key": "AIzaSyA-BuFhAvOHvojgCZf1MHHJ4VbzsHmPbCY"
        }
      ],
      "services": {
        "appinvite_service": {
          "other_platform_oauth_client": [
            {
              "client_id": "97867280137-hl6rc00b4go1huecg64o5s91a5n12lif.apps.googleusercontent.com",
              "client_type": 3
            }
          ]
        }
      }
    }
  ],
  "configuration_version": "1"
}